<?xml version="1.0" encoding="utf-8"?>
<!-- Generator: Adobe Illustrator 24.3.0, SVG Export Plug-In . SVG Version: 6.00 Build 0)  -->
<svg version="1.1" id="Layer_1" xmlns="http://www.w3.org/2000/svg" xmlns:xlink="http://www.w3.org/1999/xlink" x="0px" y="0px"
	 viewBox="0 0 410 27.53" style="enable-background:new 0 0 410 27.53;" xml:space="preserve">
<style type="text/css">
	.st0{fill:#FFFFFF;}
</style>
<g>
	<path class="st0" d="M16.71,21.03H8.3l-1.87,6.12H0L9.22,0.38h6.96l9.22,26.77h-6.81L16.71,21.03z M12.5,7.46L8.91,19.08h7.19
		L12.5,7.46z"/>
	<path class="st0" d="M26.8,27.15v-1.57h3.71V1.95H26.8V0.38h14v1.57h-3.67v23.63h3.67v1.57H26.8z"/>
	<path class="st0" d="M58.91,21.03H50.5l-1.87,6.12H42.2l9.21-26.77h6.96l9.22,26.77h-6.81L58.91,21.03z M54.71,7.46l-3.6,11.63
		h7.19L54.71,7.46z"/>
	<path class="st0" d="M98.14,8.53c-1.15-3.75-4.21-6.2-7.88-6.2c-5.81,0-9.18,5.12-9.18,11.85c0,7.07,3.82,11.05,9.02,11.05
		c3.71,0,6.46-2.18,8.03-6.08h2.79c-2.06,6-5.89,8.37-10.82,8.37c-6.65,0-11.89-4.51-11.89-13.34C78.21,5.54,83.03,0,90.26,0
		c4.93,0,9.22,2.75,10.74,8.53H98.14z"/>
	<path class="st0" d="M103.71,17.93c0-6.23,4.09-9.52,8.8-9.52c4.74,0,8.83,3.29,8.83,9.52s-4.09,9.52-8.83,9.52
		C107.8,27.45,103.71,24.17,103.71,17.93z M106.27,17.93c0,4.63,2.79,7.49,6.23,7.49c3.44,0,6.23-2.87,6.23-7.49
		s-2.79-7.49-6.23-7.49C109.07,10.44,106.27,13.31,106.27,17.93z"/>
	<path class="st0" d="M127.38,13.46v13.69h-2.56V8.68h2.18l0.07,2.71c1.57-1.8,3.75-2.98,6.35-2.98c3.63,0,6.04,2.49,6.04,7.11
		v11.63h-2.56V15.6c0-3.21-1.64-5.08-4.09-5.08C130.66,10.51,128.64,11.89,127.38,13.46z"/>
	<path class="st0" d="M150.92,27.3c-2.33,0-5.12-1.11-5.12-4.82V9.75h-3.6V8.68h3.6V3.21l2.6-0.92v6.39h4.59v1.07h-4.59v12.27
		c0,2.41,1.34,3.14,3.37,3.14c0.69,0,1.34-0.19,1.68-0.31v1.95C152.88,27.11,151.96,27.3,150.92,27.3z"/>
	<path class="st0" d="M157.39,27.15V8.68h2.18l0.11,4.66c1.87-3.44,4.44-5.05,7.26-4.93v2.33c-2.71-0.19-5.35,1.61-7,5.31v11.09
		H157.39z"/>
	<path class="st0" d="M181.09,24.43c-2.29,1.91-4.59,3.02-6.84,3.02c-3.1,0-5.2-1.76-5.2-4.59c0-2.71,2.45-4.74,7.34-6.04l4.63-1.22
		v-0.11c0-3.37-2.1-5.05-4.74-5.05c-2.49,0-3.98,0.73-4.51,3.1h-2.37c0.46-3.71,3.48-5.16,7.07-5.16c4.59,0,7.11,2.83,7.11,7.07
		v8.14c0,1.53,0.65,2.03,2.07,1.76v1.68C183.34,27.8,181.47,26.88,181.09,24.43z M181.01,22.52v-5.74l-3.48,0.92
		c-4.17,1.11-5.89,2.87-5.89,4.93c0,1.72,1.03,2.83,2.98,2.83C176.35,25.46,178.57,24.62,181.01,22.52z"/>
	<path class="st0" d="M196.46,10.4c-3.36,0-5.89,2.87-5.89,7.57c0,4.59,2.6,7.46,5.85,7.46c2.48,0,4.28-1.34,5.16-3.63h2.37
		c-1.3,3.94-3.98,5.66-7.49,5.66c-4.55,0-8.45-3.29-8.45-9.48c0-6.23,3.75-9.6,8.41-9.6c3.59,0,6.08,1.68,7.42,5.54h-2.56
		C200.16,11.62,198.71,10.4,196.46,10.4z"/>
	<path class="st0" d="M214.19,27.3c-2.33,0-5.12-1.11-5.12-4.82V9.75h-3.59V8.68h3.59V3.21l2.6-0.92v6.39h4.59v1.07h-4.59v12.27
		c0,2.41,1.34,3.14,3.37,3.14c0.69,0,1.34-0.19,1.68-0.31v1.95C216.14,27.11,215.23,27.3,214.19,27.3z"/>
	<path class="st0" d="M230.9,0.38h9.52c7.26,0,12.2,5.24,12.2,13.42c0,8.15-4.93,13.35-12.2,13.35h-9.52V0.38z M233.8,2.68v22.18
		h6.62c5.89,0,9.29-4.78,9.29-11.05c0-6.31-3.4-11.13-9.29-11.13H233.8z"/>
	<path class="st0" d="M255.4,17.93c0-6.23,4.09-9.52,8.79-9.52c4.74,0,8.83,3.29,8.83,9.52s-4.09,9.52-8.83,9.52
		C259.49,27.45,255.4,24.17,255.4,17.93z M257.96,17.93c0,4.63,2.79,7.49,6.23,7.49c3.44,0,6.23-2.87,6.23-7.49
		s-2.79-7.49-6.23-7.49C260.75,10.44,257.96,13.31,257.96,17.93z"/>
	<path class="st0" d="M284.3,10.4c-3.36,0-5.89,2.87-5.89,7.57c0,4.59,2.6,7.46,5.85,7.46c2.48,0,4.28-1.34,5.16-3.63h2.37
		c-1.3,3.94-3.98,5.66-7.49,5.66c-4.55,0-8.45-3.29-8.45-9.48c0-6.23,3.75-9.6,8.41-9.6c3.59,0,6.08,1.68,7.42,5.54h-2.56
		C288.01,11.62,286.56,10.4,284.3,10.4z"/>
	<path class="st0" d="M307.85,24.66c-1.53,1.68-3.63,2.75-6.16,2.75c-3.63,0-6.08-2.45-6.08-7.11V8.68h2.6v11.58
		c0,3.33,1.57,5.08,3.94,5.08c2.18,0,4.36-1.3,5.39-2.83V8.68h2.56v18.47h-2.18L307.85,24.66z"/>
	<path class="st0" d="M317.9,13.38v13.77h-2.56V8.68h2.18l0.08,2.71c1.53-1.76,3.6-2.98,6.08-2.98c2.37,0,4.17,1.15,5.09,3.33
		c1.57-1.95,3.75-3.33,6.46-3.33c3.48,0,5.77,2.49,5.77,7.11v11.63h-2.56V15.6c0-3.21-1.53-5.08-3.9-5.08
		c-1.99,0-3.94,1.26-5.24,3.1c0.12,0.57,0.15,1.22,0.15,1.91v11.63h-2.56V15.6c0-3.21-1.53-5.08-3.94-5.08
		C321,10.51,319.13,11.7,317.9,13.38z"/>
	<path class="st0" d="M353.3,27.42c-4.7,0-8.6-3.29-8.6-9.48c0-6.2,3.75-9.56,8.26-9.56c4.21,0,7.72,3.33,7.72,9.29v0.3h-13.46
		c0,4.59,2.64,7.42,6.08,7.42c2.18,0,4.09-1.11,4.78-3.59h2.37C359.35,25.89,356.59,27.42,353.3,27.42z M347.26,16.82h10.86
		c-0.23-4.01-2.41-6.38-5.16-6.38C350.05,10.44,347.65,12.81,347.26,16.82z"/>
	<path class="st0" d="M367.45,13.46v13.69h-2.56V8.68h2.18l0.08,2.71c1.57-1.8,3.75-2.98,6.35-2.98c3.63,0,6.04,2.49,6.04,7.11
		v11.63h-2.56V15.6c0-3.21-1.64-5.08-4.09-5.08C370.74,10.51,368.71,11.89,367.45,13.46z"/>
	<path class="st0" d="M390.81,27.3c-2.33,0-5.12-1.11-5.12-4.82V9.75h-3.6V8.68h3.6V3.21l2.6-0.92v6.39h4.59v1.07h-4.59v12.27
		c0,2.41,1.34,3.14,3.36,3.14c0.69,0,1.34-0.19,1.68-0.31v1.95C392.76,27.11,391.84,27.3,390.81,27.3z"/>
	<path class="st0" d="M407.28,13.53c-0.96-2.37-2.48-3.21-4.78-3.21c-2.45,0-3.9,1.07-3.9,2.87c0,1.87,1.61,2.72,4.78,3.52
		c4.78,1.22,6.62,2.79,6.62,5.47c0,2.91-2.26,5.28-6.88,5.28c-4.17,0-6.73-1.99-7.46-5.51h2.41c0.57,2.48,2.52,3.55,5.09,3.55
		c2.91,0,4.4-1.34,4.4-3.02c0-1.45-1.15-2.68-5.2-3.71c-4.28-1.07-6.12-2.87-6.12-5.39c0-3.02,2.49-5.01,6.39-5.01
		c3.14,0,6.16,1.38,7.04,5.16H407.28z"/>
</g>
</svg>
